Path does not exist : G:\EERSFILE/
Path does not exist : G:\EERSFILE/
7/3/2023 1:13:12 PM
Exception Occured on WriteERSFeedCould not find a part of the path 'G:\EERSFILE/'.

7/3/2023 1:14:09 PM
Exception Occured on WriteERSFeedCould not find a part of the path 'G:\EERSFILE/'.

7/3/2023 1:14:30 PM
Exception Occured on WriteERSFeedCould not find a part of the path 'G:\EERSFILE/'.

